<?xml version="1.0" encoding="UTF-8" standalone="no"?>
<svg
   width="700pt"
   height="700pt"
   version="1.1"
   viewBox="0 0 700 700"
   id="svg161"
   sodipodi:docname="organic.svg"
   inkscape:version="1.1.1 (3bf5ae0d25, 2021-09-20)"
   xmlns:inkscape="http://www.inkscape.org/namespaces/inkscape"
   xmlns:sodipodi="http://sodipodi.sourceforge.net/DTD/sodipodi-0.dtd"
   xmlns="http://www.w3.org/2000/svg"
   xmlns:svg="http://www.w3.org/2000/svg">
  <sodipodi:namedview
     id="namedview163"
     pagecolor="#ffffff"
     bordercolor="#666666"
     borderopacity="1.0"
     inkscape:pageshadow="2"
     inkscape:pageopacity="0.0"
     inkscape:pagecheckerboard="0"
     inkscape:document-units="pt"
     showgrid="false"
     showguides="true"
     inkscape:guide-bbox="true"
     inkscape:zoom="0.63107143"
     inkscape:cx="509.45105"
     inkscape:cy="399.32088"
     inkscape:window-width="1584"
     inkscape:window-height="745"
     inkscape:window-x="8"
     inkscape:window-y="40"
     inkscape:window-maximized="0"
     inkscape:current-layer="g159" />
  <defs
     id="defs65">
    <symbol
       id="u"
       overflow="visible">
      <path
         d="m3.6562-0.21875c-0.1875 0.09375-0.38672 0.16797-0.59375 0.21875-0.19922 0.050781-0.40625 0.078125-0.625 0.078125-0.66797 0-1.1992-0.17969-1.5938-0.54688-0.38672-0.375-0.57812-0.87891-0.57812-1.5156 0-0.64453 0.19141-1.1484 0.57812-1.5156 0.39453-0.375 0.92578-0.5625 1.5938-0.5625 0.21875 0 0.42578 0.027344 0.625 0.078125 0.20703 0.054687 0.40625 0.125 0.59375 0.21875v0.82812c-0.1875-0.125-0.375-0.21875-0.5625-0.28125-0.17969-0.0625-0.37109-0.09375-0.57812-0.09375-0.36719 0-0.65625 0.12109-0.875 0.35938-0.21094 0.23047-0.3125 0.55469-0.3125 0.96875 0 0.40625 0.10156 0.73047 0.3125 0.96875 0.21875 0.23047 0.50781 0.34375 0.875 0.34375 0.20703 0 0.39844-0.023437 0.57812-0.078125 0.1875-0.0625 0.375-0.16016 0.5625-0.29688z"
         id="path2" />
    </symbol>
    <symbol
       id="d"
       overflow="visible">
      <path
         d="m2.6875-2.1719c-0.085938-0.039063-0.16797-0.070313-0.25-0.09375-0.085938-0.019531-0.16797-0.03125-0.25-0.03125-0.25 0-0.44531 0.085937-0.57812 0.25-0.125 0.15625-0.1875 0.38281-0.1875 0.67188v1.375h-0.96875v-2.9844h0.96875v0.48438c0.11328-0.19531 0.25-0.33594 0.40625-0.42188 0.16406-0.09375 0.35938-0.14062 0.57812-0.14062h0.10938c0.039063 0 0.09375 0.007812 0.15625 0.015625z"
         id="path5" />
    </symbol>
    <symbol
       id="a"
       overflow="visible">
      <path
         d="m3.4375-1.5v0.26562h-2.2344c0.03125 0.23047 0.11328 0.40234 0.25 0.51562 0.13281 0.10547 0.32812 0.15625 0.57812 0.15625 0.20703 0 0.41406-0.023438 0.625-0.078125 0.20703-0.0625 0.42188-0.15625 0.64062-0.28125v0.73438c-0.21875 0.09375-0.44531 0.16406-0.67188 0.20312-0.23047 0.039062-0.45312 0.0625-0.67188 0.0625-0.54297 0-0.96484-0.13281-1.2656-0.40625-0.30469-0.28125-0.45312-0.67188-0.45312-1.1719 0-0.47656 0.14453-0.85938 0.4375-1.1406 0.30078-0.28125 0.70703-0.42188 1.2188-0.42188 0.46875 0 0.84375 0.14062 1.125 0.42188s0.42188 0.66406 0.42188 1.1406zm-0.96875-0.32812c0-0.17578-0.058594-0.31641-0.17188-0.42188-0.10547-0.11328-0.24219-0.17188-0.40625-0.17188-0.1875 0-0.33984 0.054687-0.45312 0.15625-0.11719 0.10547-0.1875 0.25-0.21875 0.4375z"
         id="path8" />
    </symbol>
    <symbol
       id="c"
       overflow="visible">
      <path
         d="m1.7969-1.3438c-0.19922 0-0.35156 0.039062-0.45312 0.10938-0.09375 0.0625-0.14062 0.16406-0.14062 0.29688 0 0.11719 0.035156 0.21094 0.10938 0.28125 0.082031 0.0625 0.19531 0.09375 0.34375 0.09375 0.17578 0 0.32812-0.0625 0.45312-0.1875s0.1875-0.28516 0.1875-0.48438v-0.10938zm1.4688-0.35938v1.7031h-0.96875v-0.4375c-0.125 0.17969-0.27344 0.30859-0.4375 0.39062-0.15625 0.082031-0.35156 0.125-0.57812 0.125-0.3125 0-0.57031-0.085938-0.76562-0.26562-0.1875-0.1875-0.28125-0.42188-0.28125-0.70312 0-0.35156 0.11719-0.61328 0.35938-0.78125 0.23828-0.16406 0.61719-0.25 1.1406-0.25h0.5625v-0.0625c0-0.15625-0.0625-0.26562-0.1875-0.32812-0.11719-0.070312-0.29688-0.10938-0.54688-0.10938-0.21094 0-0.40234 0.023437-0.57812 0.0625-0.17969 0.042969-0.33984 0.10156-0.48438 0.17188v-0.71875c0.19531-0.050781 0.39844-0.085938 0.60938-0.10938 0.20703-0.03125 0.41406-0.046875 0.625-0.046875 0.53906 0 0.92969 0.10938 1.1719 0.32812 0.23828 0.21094 0.35938 0.55469 0.35938 1.0312z"
         id="path11" />
    </symbol>
    <symbol
       id="b"
       overflow="visible">
      <path
         d="m1.5-3.8438v0.85938h0.98438v0.67188h-0.98438v1.2812c0 0.13672 0.023438 0.23047 0.078125 0.28125 0.0625 0.042969 0.17578 0.0625 0.34375 0.0625h0.48438v0.6875h-0.8125c-0.38672 0-0.65625-0.078125-0.8125-0.23438s-0.23438-0.42188-0.23438-0.79688v-1.2812h-0.46875v-0.67188h0.46875v-0.85938z"
         id="path14" />
    </symbol>
    <symbol
       id="h"
       overflow="visible">
      <path
         d="m2.5-2.5469v-1.6094h0.95312v4.1562h-0.95312v-0.4375c-0.13672 0.17969-0.28125 0.30859-0.4375 0.39062-0.15625 0.082031-0.33984 0.125-0.54688 0.125-0.375 0-0.68359-0.14453-0.92188-0.4375-0.23047-0.28906-0.34375-0.67188-0.34375-1.1406 0-0.45703 0.11328-0.83203 0.34375-1.125 0.23828-0.28906 0.54688-0.4375 0.92188-0.4375 0.19531 0 0.375 0.042969 0.53125 0.125 0.16406 0.085938 0.31641 0.21484 0.45312 0.39062zm-0.64062 1.9375c0.20703 0 0.36328-0.070313 0.46875-0.21875 0.11328-0.15625 0.17188-0.37891 0.17188-0.67188 0-0.28125-0.058594-0.49219-0.17188-0.64062-0.10547-0.15625-0.26172-0.23438-0.46875-0.23438-0.19922 0-0.35547 0.078125-0.46875 0.23438-0.10547 0.14844-0.15625 0.35938-0.15625 0.64062 0 0.29297 0.050781 0.51562 0.15625 0.67188 0.11328 0.14844 0.26953 0.21875 0.46875 0.21875z"
         id="path17" />
    </symbol>
    <symbol
       id="m"
       overflow="visible">
      <path
         d="m2.0469-0.60938c0.20703 0 0.36328-0.070313 0.46875-0.21875 0.11328-0.15625 0.17188-0.37891 0.17188-0.67188 0-0.28125-0.058594-0.49219-0.17188-0.64062-0.10547-0.15625-0.26172-0.23438-0.46875-0.23438-0.19922 0-0.35547 0.078125-0.46875 0.23438-0.10547 0.14844-0.15625 0.35938-0.15625 0.64062 0 0.29297 0.050781 0.51562 0.15625 0.67188 0.11328 0.14844 0.26953 0.21875 0.46875 0.21875zm-0.625-1.9375c0.125-0.17578 0.26562-0.30469 0.42188-0.39062 0.16406-0.082031 0.35156-0.125 0.5625-0.125 0.36328 0 0.66406 0.14844 0.90625 0.4375 0.23828 0.29297 0.35938 0.66797 0.35938 1.125 0 0.46875-0.12109 0.85156-0.35938 1.1406-0.24219 0.29297-0.54297 0.4375-0.90625 0.4375-0.21094 0-0.39844-0.042969-0.5625-0.125-0.15625-0.082031-0.29688-0.21094-0.42188-0.39062v0.4375h-0.96875v-4.1562h0.96875z"
         id="path20" />
    </symbol>
    <symbol
       id="l"
       overflow="visible">
      <path
         d="m0.0625-2.9844h0.95312l0.8125 2.0156 0.6875-2.0156h0.95312l-1.2656 3.2656c-0.125 0.33203-0.27344 0.56641-0.4375 0.70312-0.16797 0.13281-0.39062 0.20312-0.67188 0.20312h-0.54688v-0.64062h0.29688c0.16406 0 0.28516-0.027344 0.35938-0.078125 0.070313-0.054688 0.12891-0.14062 0.17188-0.26562l0.03125-0.09375z"
         id="path23" />
    </symbol>
    <symbol
       id="k"
       overflow="visible">
      <path
         d="m0.5-3.9844h1.3125l0.90625 2.125 0.90625-2.125h1.3125v3.9844h-0.96875v-2.9219l-0.92188 2.1562h-0.65625l-0.90625-2.1562v2.9219h-0.98438z"
         id="path26" />
    </symbol>
    <symbol
       id="g"
       overflow="visible">
      <path
         d="m0.42188-1.1719v-1.8125h0.96875v0.29688 0.60938 0.48438c0 0.24219 0.003906 0.41797 0.015625 0.53125 0.007812 0.10547 0.03125 0.17969 0.0625 0.21875 0.039062 0.0625 0.09375 0.11719 0.15625 0.15625 0.0625 0.03125 0.13281 0.046875 0.21875 0.046875 0.19531 0 0.35156-0.078125 0.46875-0.23438 0.11328-0.15625 0.17188-0.36719 0.17188-0.64062v-1.4688h0.95312v2.9844h-0.95312v-0.4375c-0.14844 0.17969-0.30469 0.30859-0.46875 0.39062-0.15625 0.082031-0.33594 0.125-0.53125 0.125-0.34375 0-0.60938-0.10156-0.79688-0.3125-0.17969-0.21875-0.26562-0.53125-0.26562-0.9375z"
         id="path29" />
    </symbol>
    <symbol
       id="j"
       overflow="visible">
      <path
         d="m3.4688-1.8281v1.8281h-0.96875v-1.3906c0-0.25781-0.007812-0.4375-0.015625-0.53125-0.011719-0.10156-0.03125-0.17578-0.0625-0.21875-0.03125-0.0625-0.085937-0.10938-0.15625-0.14062-0.0625-0.039062-0.13281-0.0625-0.20312-0.0625-0.21094 0-0.37109 0.078125-0.48438 0.23438-0.10547 0.15625-0.15625 0.37109-0.15625 0.64062v1.4688h-0.96875v-4.1562h0.96875v1.6094c0.13281-0.17578 0.28516-0.30469 0.45312-0.39062 0.16406-0.082031 0.34375-0.125 0.53125-0.125 0.34375 0 0.60156 0.10938 0.78125 0.32812 0.1875 0.21094 0.28125 0.51172 0.28125 0.90625z"
         id="path32" />
    </symbol>
    <symbol
       id="f"
       overflow="visible">
      <path
         d="m3.2344-2.5c0.11328-0.17578 0.25391-0.3125 0.42188-0.40625 0.16406-0.10156 0.35156-0.15625 0.5625-0.15625 0.33203 0 0.58594 0.10938 0.76562 0.32812 0.1875 0.21094 0.28125 0.51172 0.28125 0.90625v1.8281h-0.96875v-1.5625c0.007813-0.019531 0.015625-0.039062 0.015625-0.0625v-0.10938c0-0.21875-0.03125-0.375-0.09375-0.46875s-0.16406-0.14062-0.29688-0.14062c-0.1875 0-0.33594 0.078125-0.4375 0.23438-0.09375 0.14844-0.14062 0.35938-0.14062 0.64062v1.4688h-0.96875v-1.5625c0-0.33203-0.03125-0.54688-0.09375-0.64062-0.054688-0.09375-0.15234-0.14062-0.29688-0.14062-0.17969 0-0.32031 0.078125-0.42188 0.23438-0.09375 0.14844-0.14062 0.35938-0.14062 0.64062v1.4688h-0.96875v-2.9844h0.96875v0.4375c0.11328-0.17578 0.24219-0.30469 0.39062-0.39062 0.15625-0.082031 0.32812-0.125 0.51562-0.125 0.20703 0 0.39062 0.054688 0.54688 0.15625 0.15625 0.09375 0.27344 0.23047 0.35938 0.40625z"
         id="path35" />
    </symbol>
    <symbol
       id="t"
       overflow="visible">
      <path
         d="m2.9219-0.71875h-1.6094l-0.25 0.71875h-1.0312l1.4688-3.9844h1.2344l1.4688 3.9844h-1.0312zm-1.3594-0.75h1.0938l-0.53125-1.5781z"
         id="path38" />
    </symbol>
    <symbol
       id="i"
       overflow="visible">
      <path
         d="m3.4688-1.8281v1.8281h-0.96875v-1.3906c0-0.25781-0.007812-0.4375-0.015625-0.53125-0.011719-0.10156-0.03125-0.17578-0.0625-0.21875-0.03125-0.0625-0.085937-0.10938-0.15625-0.14062-0.0625-0.039062-0.13281-0.0625-0.20312-0.0625-0.21094 0-0.37109 0.078125-0.48438 0.23438-0.10547 0.15625-0.15625 0.37109-0.15625 0.64062v1.4688h-0.96875v-2.9844h0.96875v0.4375c0.13281-0.17578 0.28516-0.30469 0.45312-0.39062 0.16406-0.082031 0.34375-0.125 0.53125-0.125 0.34375 0 0.60156 0.10938 0.78125 0.32812 0.1875 0.21094 0.28125 0.51172 0.28125 0.90625z"
         id="path41" />
    </symbol>
    <symbol
       id="s"
       overflow="visible">
      <path
         d="m2.7969-2.8906v0.71875c-0.21094-0.082031-0.40625-0.14453-0.59375-0.1875-0.1875-0.039063-0.37109-0.0625-0.54688-0.0625-0.17969 0-0.3125 0.023437-0.40625 0.0625-0.085938 0.042969-0.125 0.10938-0.125 0.20312 0 0.085938 0.03125 0.14844 0.09375 0.1875 0.070312 0.042969 0.19531 0.074219 0.375 0.09375l0.15625 0.015625c0.48828 0.0625 0.81641 0.16797 0.98438 0.3125 0.17578 0.13672 0.26562 0.35938 0.26562 0.67188s-0.12109 0.55469-0.35938 0.71875c-0.23047 0.15625-0.57812 0.23438-1.0469 0.23438-0.19922 0-0.40625-0.015625-0.625-0.046875-0.21094-0.03125-0.42188-0.078125-0.64062-0.14062v-0.71875c0.1875 0.085937 0.37891 0.15234 0.57812 0.20312 0.20703 0.042969 0.41406 0.0625 0.625 0.0625 0.1875 0 0.32812-0.023438 0.42188-0.078125 0.09375-0.050781 0.14062-0.125 0.14062-0.21875s-0.039062-0.16016-0.10938-0.20312c-0.0625-0.039062-0.1875-0.070312-0.375-0.09375l-0.17188-0.015625c-0.42969-0.050781-0.73047-0.14844-0.90625-0.29688-0.16797-0.14453-0.25-0.36328-0.25-0.65625 0-0.32031 0.10938-0.55469 0.32812-0.70312 0.21875-0.15625 0.55078-0.23438 1-0.23438 0.17578 0 0.35938 0.015625 0.54688 0.046875 0.19531 0.023437 0.41016 0.0625 0.64062 0.125z"
         id="path44" />
    </symbol>
    <symbol
       id="r"
       overflow="visible">
      <path
         d="m2.4219-4.1562v0.625h-0.51562c-0.13672 0-0.23438 0.027344-0.29688 0.078125-0.054687 0.054687-0.078125 0.13672-0.078125 0.25v0.21875h0.82812v0.67188h-0.82812v2.3125h-0.95312v-2.3125h-0.46875v-0.67188h0.46875v-0.21875c0-0.32031 0.085937-0.5625 0.26562-0.71875 0.1875-0.15625 0.47266-0.23438 0.85938-0.23438z"
         id="path47" />
    </symbol>
    <symbol
       id="e"
       overflow="visible">
      <path
         d="m1.875-2.375c-0.21094 0-0.37109 0.078125-0.48438 0.23438-0.10547 0.14844-0.15625 0.35938-0.15625 0.64062 0 0.29297 0.050781 0.51562 0.15625 0.67188 0.11328 0.14844 0.27344 0.21875 0.48438 0.21875 0.20703 0 0.36719-0.070313 0.48438-0.21875 0.11328-0.15625 0.17188-0.37891 0.17188-0.67188 0-0.28125-0.058594-0.49219-0.17188-0.64062-0.11719-0.15625-0.27734-0.23438-0.48438-0.23438zm0-0.6875c0.51953 0 0.92188 0.14062 1.2031 0.42188 0.28906 0.27344 0.4375 0.65234 0.4375 1.1406 0 0.5-0.14844 0.89062-0.4375 1.1719-0.28125 0.27344-0.68359 0.40625-1.2031 0.40625-0.51172 0-0.91406-0.13281-1.2031-0.40625-0.29297-0.28125-0.4375-0.67188-0.4375-1.1719 0-0.48828 0.14453-0.86719 0.4375-1.1406 0.28906-0.28125 0.69141-0.42188 1.2031-0.42188z"
         id="path50" />
    </symbol>
    <symbol
       id="q"
       overflow="visible">
      <path
         d="m0.5-3.9844h1.1562l1.4375 2.7344v-2.7344h0.98438v3.9844h-1.1562l-1.4375-2.7344v2.7344h-0.98438z"
         id="path53" />
    </symbol>
    <symbol
       id="p"
       overflow="visible">
      <path
         d="m0.5-3.9844h1.7031c0.50781 0 0.89844 0.11719 1.1719 0.34375 0.26953 0.21875 0.40625 0.53906 0.40625 0.95312 0 0.41797-0.13672 0.74219-0.40625 0.96875-0.27344 0.21875-0.66406 0.32812-1.1719 0.32812h-0.67188v1.3906h-1.0312zm1.0312 0.75v1.1094h0.5625c0.19531 0 0.34766-0.046875 0.45312-0.14062 0.11328-0.10156 0.17188-0.24219 0.17188-0.42188 0-0.17578-0.058594-0.3125-0.17188-0.40625-0.10547-0.09375-0.25781-0.14062-0.45312-0.14062z"
         id="path56" />
    </symbol>
    <symbol
       id="o"
       overflow="visible">
      <path
         d="m0.45312-2.9844h0.96875v2.9375c0 0.39453-0.10156 0.69531-0.29688 0.90625-0.1875 0.21875-0.46484 0.32812-0.82812 0.32812h-0.48438v-0.64062h0.17188c0.17578 0 0.29688-0.042969 0.35938-0.125 0.070312-0.074219 0.10938-0.23047 0.10938-0.46875zm0-1.1719h0.96875v0.78125h-0.96875z"
         id="path59" />
    </symbol>
    <symbol
       id="n"
       overflow="visible">
      <path
         d="m2.875-2.8906v0.76562c-0.125-0.082031-0.25781-0.14453-0.39062-0.1875-0.13672-0.039062-0.27344-0.0625-0.40625-0.0625-0.27344 0-0.48047 0.078125-0.625 0.23438-0.14844 0.15625-0.21875 0.37109-0.21875 0.64062 0 0.28125 0.070313 0.5 0.21875 0.65625 0.14453 0.15625 0.35156 0.23438 0.625 0.23438 0.14453 0 0.28516-0.019531 0.42188-0.0625 0.13281-0.039063 0.25781-0.10938 0.375-0.20312v0.78125c-0.14844 0.0625-0.29688 0.10156-0.45312 0.125-0.15625 0.03125-0.3125 0.046875-0.46875 0.046875-0.54297 0-0.96484-0.13281-1.2656-0.40625-0.30469-0.28125-0.45312-0.67188-0.45312-1.1719 0-0.48828 0.14844-0.86719 0.45312-1.1406 0.30078-0.28125 0.72266-0.42188 1.2656-0.42188 0.15625 0 0.3125 0.015625 0.46875 0.046875 0.15625 0.023437 0.30469 0.0625 0.45312 0.125z"
         id="path62" />
    </symbol>
  </defs>
  <g
     id="g159">
    <path
       d="m375.05 226.08c-2.7344-28-16.844-54.031-25.047-67.047-8.2031 13.125-22.312 39.047-25.047 67.047 11.047 8.75 19.469 18.922 25.047 30.297 5.5781-11.375 14-21.547 25.047-30.297z"
       id="path67"
       style="fill:#552200" />
    <path
       d="m358.2 292.47v0.21875h21c38.938-10.938 54.25-57.094 59.172-77.875-42.219 10.062-80.172 34.453-80.172 77.656z"
       id="path69"
       style="fill:#552200" />
    <path
       d="m485.95 411.8c-1.75 7.2188-5.5781 13.781-10.828 18.922-0.21875 0.10938-0.32812 0.21875-0.4375 0.32812-0.32812 0.32812-0.76562 0.65625-1.0938 0.98438-1.9688 1.8594-4.1562 3.3906-6.5625 4.8125-23.406 13.562-43.203-2.0781-47.359-3.1719-8.75-4.2656-18.812-2.7344-25.922 3.1719-1.6406 1.4219-3.0625 3.0625-4.375 4.9219l-6.0156 8.75c-0.10938 0.21875-0.32812 0.32812-0.4375 0.54688l43.203 91.984c0.10938 0.10938 0.21875 0.4375 0.65625 0.4375 0.21875 0 0.32812 0 0.4375-0.10938 0.10938 0 0.21875-0.10938 0.21875-0.21875l26.578-48.125c0.875-1.75 2.0781-3.1719 3.3906-4.375 0.32812-0.32812 0.65625-0.65625 0.98438-0.875 3.8281-3.0625 8.9688-4.2656 14-3.2812l52.281 10.719c0.21875 0.10938 0.4375 0.10938 0.76562-0.21875 0.10938 0 0.10938-0.10938 0.10938-0.10938 0.10938-0.32812 0.10938-0.54688 0-0.65625z"
       id="path71"
       style="fill:#552200" />
    <path
       d="m261.52 214.92c5.0312 20.672 20.344 66.938 59.281 77.766h20.891v-0.10938c0-43.312-37.953-67.703-80.172-77.656z"
       id="path73"
       style="fill:#552200" />
    <path
       d="m548.41 259.98c0.10938-0.10938 0.32812-0.32812 0.54688-0.4375 3.1719-2.5156 10.609-5.7969 14.656-12.578 2.0781-3.2812 3.6094-7.4375 3.6094-12.797 0-17.062-15.094-21.984-19.25-25.812-16.625-11.375-22.422-32.812-13.672-50.969 0.10938-0.4375 0.4375-0.98438 0.65625-1.5312 1.4219-3.0625 4.375-7.5469 5.6875-13.016 1.3125-5.1406 1.2031-11.047-2.5156-17.5-8.5312-14.875-24.172-11.594-29.641-12.797-20.125-1.5312-35.766-17.172-37.297-37.297-0.10938-0.54688-0.10938-1.3125-0.21875-2.1875-0.10938-3.1719 0-7.6562-1.2031-12.469-1.3125-5.25-4.375-10.828-11.266-14.875-2.625-1.4219-5.1406-2.4062-7.5469-2.8438-0.10938 0-0.32812-0.10938-0.4375-0.10938h-0.32812c-0.21875 0-0.54688-0.10938-0.875-0.10938h-0.10938c-0.32812-0.10938-0.76562-0.10938-1.0938-0.10938h-0.10938-1.0938-0.4375-0.76562c-0.4375 0-0.875 0.10938-1.2031 0.10938-7.4375 0.875-13.344 5.0312-16.953 6.5625-0.4375 0.21875-0.76562 0.32812-1.0938 0.4375-7.6562 3.7188-16.078 4.8125-23.953 3.5-0.10938 0-0.32812-0.10938-0.54688-0.10938s-0.32812-0.10938-0.54688-0.10938c-10.172-1.8594-19.578-7.7656-25.812-16.953-0.32812-0.32812-0.65625-0.875-1.0938-1.4219-2.0781-3.0625-4.7031-8.0938-9.1875-12.141-3.6094-3.2812-8.6406-5.7969-15.531-5.7969s-11.812 2.5156-15.531 5.7969c-4.4844 4.0469-7.1094 9.1875-9.1875 12.141-0.32812 0.54688-0.76562 1.0938-1.0938 1.4219-6.2344 9.1875-15.641 14.984-25.812 16.953-0.21875 0-0.32812 0.10938-0.54688 0.10938-0.10938 0-0.32812 0.10938-0.54688 0.10938-7.875 1.3125-16.188 0.21875-23.953-3.5-0.32812-0.10938-0.76562-0.32812-1.0938-0.4375-3.7188-1.6406-9.625-5.7969-16.953-6.5625-0.4375-0.10938-0.76562-0.10938-1.2031-0.10938h-0.76562-0.4375-1.0938-0.10938c-0.32812 0-0.76562 0.10938-1.0938 0.10938h-0.10938c-0.21875 0-0.54688 0.10938-0.875 0.10938h-0.32812c-0.10938 0-0.32812 0.10938-0.4375 0.10938-2.4062 0.4375-4.9219 1.3125-7.5469 2.8438-7 3.9375-9.9531 9.5156-11.266 14.875-1.0938 4.7031-0.98438 9.2969-1.2031 12.469 0 0.875-0.10938 1.5312-0.21875 2.1875-1.5312 20.125-17.172 35.766-37.297 37.297-5.4688 1.3125-21.109-1.9688-29.641 12.797-3.7188 6.4531-3.7188 12.469-2.5156 17.5 1.3125 5.4688 4.2656 9.9531 5.6875 13.016 0.32812 0.54688 0.54688 1.0938 0.65625 1.5312 8.75 18.156 2.9531 39.594-13.672 50.969-4.0469 3.7188-19.25 8.75-19.25 25.812 0 5.3594 1.4219 9.5156 3.6094 12.797 4.4844 6.8906 11.922 10.062 15.094 12.578 0.21875 0.10938 0.4375 0.32812 0.54688 0.4375 16.625 11.375 22.422 32.812 13.672 50.969-1.3125 4.1562-8.0938 12.359-6.8906 22.75v0.10938c0 0.4375 0 0.76562 0.10938 1.2031 0.4375 2.5156 1.3125 5.25 2.9531 7.9844 2.0781 3.7188 4.7031 6.3438 7.4375 8.0938 7.9844 5.1406 17.281 3.9375 21.656 4.5938 0.21875 0 0.32812 0.10938 0.54688 0.10938 20.125 1.5312 35.766 17.172 37.297 37.297 0.32812 1.3125 0.32812 3.1719 0.4375 5.3594l0.4375 5.25c0.10938 0.21875 0.10938 0.4375 0.10938 0.65625 0.32812 2.7344 0.98438 5.6875 2.4062 8.5312l0.32812 0.65625c2.0781 3.7188 5.1406 6.8906 9.0781 9.1875 0.4375 0.32812 0.98438 0.54688 1.4219 0.76562 7 3.5 13.344 2.7344 18.594 0.98438 2.1875-0.76562 4.375-1.8594 6.6719-2.9531 2.1875-1.2031 3.9375-2.1875 5.3594-2.625 4.9219-2.2969 10.172-3.6094 15.312-3.9375h0.32812 1.9688 0.10938 0.21875c0.65625 0.10938 1.2031 0.10938 1.8594 0.10938h0.65625c0.54688 0 1.0938 0 1.6406 0.10938 0.10938 0.10938 0.32812 0.10938 0.54688 0.10938 0.65625 0.10938 1.4219 0.21875 2.0781 0.32812 0.21875 0 0.32812 0.10938 0.54688 0.10938l1.6406 0.32812c0.21875 0 0.4375 0 0.65625 0.10938 0.54688 0.10938 1.0938 0.21875 1.6406 0.4375 0.21875 0 0.32812 0.10938 0.4375 0.10938l1.9688 0.65625c0.10938 0.10938 0.32812 0.10938 0.54688 0.21875 0.54688 0.21875 1.0938 0.4375 1.5312 0.65625 0.21875 0 0.4375 0.10938 0.65625 0.21875l1.9688 0.98438 0.10938 0.10938c0.54688 0.32812 1.2031 0.65625 1.75 0.98438 0.21875 0.10938 0.32812 0.21875 0.54688 0.32812 0.54688 0.21875 0.98438 0.54688 1.4219 0.875 0.10938 0.10938 0.32812 0.21875 0.4375 0.32812 0.54688 0.4375 1.2031 0.875 1.75 1.3125l0.32812 0.32812c0.4375 0.32812 0.875 0.65625 1.3125 1.0938 0.21875 0.10938 0.32812 0.32812 0.54688 0.4375l1.6406 1.6406c0.54688 0.54688 0.98438 1.0938 1.5312 1.6406 0.21875 0.10938 0.32812 0.32812 0.4375 0.4375 0.32812 0.4375 0.76562 0.875 1.0938 1.3125 0.21875 0.21875 0.32812 0.32812 0.4375 0.54688 0.4375 0.54688 0.875 1.2031 1.3125 1.8594 1.9688 1.9688 4.0469 6.7812 7.7656 11.047 3.8281 4.375 9.2969 8.2031 18.047 8.2031 8.6406 0 14.219-3.8281 18.047-8.2031 3.7188-4.2656 5.7969-9.0781 7.7656-11.047 0.4375-0.65625 0.875-1.2031 1.3125-1.8594 0.21875-0.21875 0.32812-0.32812 0.4375-0.54688 0.32812-0.4375 0.76562-0.875 1.0938-1.3125 0.21875-0.10938 0.32812-0.32812 0.4375-0.4375 0.54688-0.54688 0.98438-1.0938 1.5312-1.6406l1.6406-1.6406c0.21875-0.10938 0.32812-0.32812 0.54688-0.4375 0.4375-0.32812 0.875-0.76562 1.3125-1.0938l0.32812-0.32812c0.54688-0.4375 1.2031-0.875 1.75-1.3125 0.10938-0.10938 0.32812-0.21875 0.4375-0.32812 0.4375-0.32812 0.98438-0.54688 1.4219-0.875 0.21875-0.10938 0.32812-0.21875 0.54688-0.32812 0.54688-0.32812 1.2031-0.65625 1.75-0.98438l0.10938-0.10938 1.9688-0.98438c0.21875 0 0.4375-0.10938 0.65625-0.21875 0.54688-0.21875 0.98438-0.4375 1.5312-0.65625 0.10938-0.10938 0.32812-0.10938 0.54688-0.21875l1.9688-0.65625c0.21875 0 0.32812-0.10938 0.4375-0.10938 0.54688-0.10938 1.0938-0.32812 1.6406-0.4375 0.21875 0 0.4375-0.10938 0.65625-0.10938l1.6406-0.32812c0.21875 0 0.32812-0.10938 0.54688-0.10938 0.65625-0.10938 1.4219-0.21875 2.0781-0.32812 0.10938-0.10938 0.32812-0.10938 0.54688-0.10938 0.54688 0 1.0938-0.10938 1.6406-0.10938h0.65625c0.65625-0.10938 1.2031-0.10938 1.8594-0.10938h0.21875 0.10938 1.9688 0.32812c5.1406 0.21875 10.391 1.5312 15.312 3.9375 1.4219 0.4375 3.1719 1.5312 5.3594 2.625 2.2969 1.0938 4.4844 2.0781 6.6719 2.9531 5.25 1.8594 11.594 2.5156 18.594-0.98438 0.4375-0.21875 0.98438-0.4375 1.4219-0.76562 3.9375-2.1875 7-5.3594 9.0781-9.1875l0.32812-0.65625c1.3125-2.8438 2.0781-5.7969 2.4062-8.5312 0.10938-0.21875 0.10938-0.4375 0.10938-0.65625l0.4375-5.25c0.10938-2.1875 0.10938-4.0469 0.4375-5.3594 1.5312-20.125 17.172-35.766 37.297-37.297 0.21875 0 0.32812-0.10938 0.54688-0.10938 4.375-0.65625 13.781 0.54688 21.656-4.5938 2.7344-1.8594 5.25-4.375 7.4375-8.0938 1.6406-2.7344 2.5156-5.4688 2.9531-7.9844 0-0.4375 0.10938-0.875 0.10938-1.2031v-0.10938c1.2031-10.391-5.5781-18.594-6.8906-22.75-8.75-18.156-2.9531-39.594 13.672-50.969zm-73.172 74.375-0.98438 0.98438c-5.6875 6.8906-12.031 13.453-18.812 19.359-2.7344 2.2969-5.5781 4.5938-8.4219 6.7812-0.4375 0.4375-0.76562 0.875-1.3125 1.2031-30.516 22.75-68.359 33.906-106.53 31.281-38.5-2.625-74.812-19.141-102.16-46.484-38.391-38.391-53.156-91.656-44.297-141.42 0-0.21875 0.10938-0.54688 0.10938-0.76562 0.21875-0.875 0.32812-1.8594 0.54688-2.7344 0.10938-0.4375 0.21875-0.98438 0.32812-1.4219 0.10938-0.65625 0.32812-1.4219 0.4375-2.0781s0.32812-1.3125 0.4375-1.9688c0.10938-0.54688 0.32812-1.0938 0.4375-1.6406 0.10938-0.76562 0.32812-1.5312 0.54688-2.2969 0.10938-0.54688 0.21875-0.98438 0.32812-1.4219 0.21875-0.76562 0.4375-1.6406 0.65625-2.4062 0.10938-0.32812 0.21875-0.76562 0.32812-1.2031 0.21875-0.875 0.54688-1.6406 0.76562-2.5156 0.21875-0.4375 0.32812-0.76562 0.4375-1.2031 0.21875-0.76562 0.4375-1.6406 0.76562-2.4062 0.10938-0.4375 0.32812-0.875 0.4375-1.3125 0.32812-0.76562 0.54688-1.5312 0.875-2.2969 0.21875-0.54688 0.32812-0.98438 0.54688-1.5312 0.21875-0.65625 0.4375-1.4219 0.76562-2.0781 0.21875-0.65625 0.4375-1.2031 0.65625-1.75 0.21875-0.65625 0.54688-1.2031 0.76562-1.8594 0.32812-0.65625 0.54688-1.3125 0.875-1.9688 0.21875-0.4375 0.4375-0.98438 0.65625-1.5312 0.32812-0.65625 0.65625-1.4219 0.98438-2.0781 0.21875-0.54688 0.4375-0.98438 0.65625-1.4219 0.32812-0.76562 0.76562-1.4219 1.0938-2.1875 0.21875-0.32812 0.4375-0.76562 0.65625-1.2031 0.4375-0.76562 0.76562-1.4219 1.2031-2.1875 0.21875-0.32812 0.4375-0.76562 0.65625-1.2031 0.4375-0.65625 0.76562-1.4219 1.2031-2.0781 0.21875-0.4375 0.54688-0.875 0.76562-1.3125 0.32812-0.65625 0.65625-1.3125 1.0938-1.9688 0.32812-0.54688 0.65625-0.98438 0.98438-1.5312s0.65625-1.0938 0.98438-1.6406c0.4375-0.54688 0.76562-1.2031 1.2031-1.8594 0.21875-0.4375 0.54688-0.76562 0.76562-1.2031 0.54688-0.76562 1.0938-1.6406 1.6406-2.4062 0.10938-0.10938 0.32812-0.32812 0.4375-0.54688 28.875-41.453 77-68.688 131.25-68.688 81.703 0 150.06 61.141 159.03 142.19 0 0.32812 0 0.76562 0.32812 1.2031 4.375 40.688-6.7812 82.688-34.125 116.81z"
       id="path75"
       style="fill:#552200" />
    <path
       d="m316.64 450.62-6.0156-8.75c-1.3125-1.8594-2.7344-3.5-4.375-4.9219-7.1094-6.0156-17.172-7.5469-25.922-3.2812-4.1562 1.0938-23.953 16.734-47.359 3.1719-2.4062-1.3125-4.5938-2.9531-6.4531-4.7031-0.32812-0.32812-0.76562-0.65625-1.0938-0.98438-0.21875-0.10938-0.32812-0.21875-0.4375-0.32812-5.25-5.25-8.9688-11.703-10.828-18.922l-39.594 84.438c-0.10938 0.10938-0.21875 0.32812 0 0.65625v0.10938c0.32812 0.32812 0.54688 0.21875 0.76562 0.21875l52.281-10.719c5.0312-1.0938 10.172 0.21875 14 3.2812 1.75 1.4219 3.2812 3.1719 4.375 5.25l26.578 48.125c0.10938 0 0.10938 0.10938 0.21875 0.21875 0.10938 0 0.21875 0.10938 0.4375 0.10938 0.4375 0 0.54688-0.32812 0.65625-0.4375l43.203-91.984c-0.10938-0.21875-0.32812-0.32812-0.4375-0.54688z"
       id="path77"
       style="fill:#552200" />
    <path
       d="m248.39 132.89c-6.8906 7-13.016 14.547-18.266 22.422 0 0.10938-0.10938 0.10938-0.10938 0.21875-0.54688 0.76562-1.0938 1.6406-1.6406 2.5156-0.10938 0.21875-0.32812 0.4375-0.4375 0.65625-0.4375 0.65625-0.875 1.4219-1.3125 2.0781-0.21875 0.32812-0.4375 0.76562-0.65625 1.0938-0.32812 0.54688-0.65625 1.0938-0.98438 1.75-0.21875 0.4375-0.54688 0.875-0.76562 1.3125-0.32812 0.54688-0.54688 1.0938-0.875 1.6406-0.32812 0.4375-0.65625 0.98438-0.875 1.5312s-0.54688 0.98438-0.76562 1.5312c-0.32812 0.54688-0.54688 1.0938-0.875 1.6406-0.21875 0.4375-0.4375 0.98438-0.65625 1.4219-0.21875 0.65625-0.54688 1.2031-0.76562 1.75s-0.4375 0.98438-0.65625 1.5312c-0.21875 0.65625-0.54688 1.2031-0.76562 1.75s-0.4375 0.98438-0.65625 1.5312l-2.625 6.5625c-0.21875 0.54688-0.32812 1.0938-0.54688 1.6406s-0.32812 1.0938-0.54688 1.6406c-0.21875 0.65625-0.32812 1.2031-0.54688 1.75-0.10938 0.4375-0.32812 0.98438-0.4375 1.5312-0.21875 0.65625-0.32812 1.2031-0.54688 1.8594-0.21875 0.54688-0.32812 0.98438-0.4375 1.4219-0.21875 0.65625-0.32812 1.4219-0.54688 2.0781-0.10938 0.32812-0.21875 0.76562-0.32812 1.0938-0.21875 0.875-0.4375 1.6406-0.65625 2.5156 0 0.21875-0.10938 0.4375-0.10938 0.65625-0.21875 0.98438-0.4375 2.0781-0.65625 3.0625v0.10938c-1.9688 9.4062-2.9531 19.031-2.9531 28.875 0 79.188 64.422 143.61 143.61 143.61 71.312 0 131.8-52.391 142.08-122.72 6.2344-43.422-7.5469-88.922-40.688-122.06-55.891-56-147-56-203 0zm207.92 77c-5.4688 29.75-19.359 63.109-42.875 82.797h26.906c4.4844 0 8.2031 3.7188 8.2031 8.2031s-3.7188 8.2031-8.2031 8.2031h-180.47c-4.4844 0-8.2031-3.7188-8.2031-8.2031s3.7188-8.2031 8.2031-8.2031h26.797c-23.516-19.578-37.516-53.047-42.875-82.797-1.3125-7.5469 5.25-14.109 12.797-12.797 9.1875 1.6406 31.719 6.6719 53.266 18.812 5.4688-32.812 22.859-60.922 30.844-72.406 4.4844-6.5625 14.219-6.5625 18.703 0 7.875 11.484 25.375 39.594 30.844 72.406 21.547-12.141 44.188-17.172 53.266-18.812 7.5469-1.4219 14.109 5.25 12.797 12.797z"
       id="path79"
       style="fill:#552200" />
  </g>
</svg>
